network_metaanalysis - Reproducing a network_metaanalysis from Meco 2026 (DOI: 10.1016/j.jcrc.2025.155330)
…
data_raw |> 
  group_by(study) |> 
  summarise(
    across(starts_with("n_events"), ~ any(!is.na(.)))
  ) |> 
  rowwise() |> 
  mutate(n_endpoints = sum(c_across(starts_with("n_events")))) |> 
  ungroup() |>  select(study, n_endpoints)

# A tibble: 31 × 2
   study                n_endpoints
   <chr>                      <int>
 1 Boussekey 2008                 2
 2 Busund 2001                    1
 3 Chu 2020                       1
 4 Coudroy 2017                   1
 5 Cruz 2009                      2
 6 Dellinger 2018                 3
 7 Gimenez-Esparza 2019           2
 8 Hassan 2013                    1
 9 Hawchar 2019                   1
10 Huang 2010                     3
# ℹ 21 more rows
…
